CarSpot - hdb_carpark
…
st_crs(carpark)

Coordinate Reference System: NA

carpark_sf <- st_as_sf(carpark, coords = c("x_coord", "y_coord"), crs=4326) %>%
  st_transform(crs = 3414)
carpark_sf

Simple feature collection with 2192 features and 10 fields (with 2192 geometries empty)
Geometry type: POINT
Dimension:     XY
Bounding box:  xmin: NA ymin: NA xmax: NA ymax: NA
Projected CRS: SVY21 / Singapore TM
# A tibble: 2,192 × 11
   car_park_no address   car_p…¹ type_…² short…³ free_…⁴ night…⁵ car_p…⁶ gantr…⁷
 * <chr>       <chr>     <chr>   <chr>   <chr>   <chr>   <chr>     <dbl>   <dbl>
 1 ACB         BLK 270/… BASEME… ELECTR… WHOLE … NO      YES           1    1.8 
 2 ACM         BLK 98A … MULTI-… ELECTR… WHOLE … SUN & … YES           5    2.1 
 3 AH1         BLK 101 … SURFAC… ELECTR… WHOLE … SUN & … YES           0    0   
 4 AK19        BLOCK 25… SURFAC… COUPON… 7AM-7PM NO      NO            0    0   
 5 AK31        BLK 302/… SURFAC… COUPON… NO      NO      NO            0    0   
 6 AK52        BLOCK 51… SURFAC… COUPON… WHOLE … NO      YES           0    0   
 7 AK6         BLOCK 72… SURFAC… COUPON… 7AM-10… SUN & … NO            0    0   
 8 AK83        BLK 5022… SURFAC… COUPON… NO      NO      NO            0    0   
 9 AK9         ANG MO K… SURFAC… COUPON… NO      NO      NO            0    0   
10 AM14        BLK 227 … MULTI-… ELECTR… WHOLE … NO      YES           6    2.15
# … with 2,182 more rows, 2 more variables: car_park_basement <chr>,
#   geometry <POINT [m]>, and abbreviated variable names ¹​car_park_type,
#   ²​type_of_parking_system, ³​short_term_parking, ⁴​free_parking,
#   ⁵​night_parking, ⁶​car_park_decks, ⁷​gantry_height
